module gitlab.com/vkenrik117/uni-study-publisher

go 1.19

require (
	github.com/kelseyhightower/envconfig v1.4.0 // indirect
	github.com/nats-io/nats.go v1.20.0 // indirect
	github.com/nats-io/nkeys v0.3.0 // indirect
	github.com/nats-io/nuid v1.0.1 // indirect
	go.uber.org/atomic v1.7.0 // indirect
	go.uber.org/multierr v1.6.0 // indirect
	go.uber.org/zap v1.23.0 // indirect
	golang.org/x/crypto v0.0.0-20210314154223-e6e6c4f2bb5b // indirect
	golang.org/x/sync v0.1.0 // indirect
)
